/* XPM */
static char * unload_all_xpm[] = {
"24 24 140 2",
"  	c None",
". 	c #041A2C",
"+ 	c #CCE6EC",
"@ 	c #E4F2F4",
"# 	c #84C6D4",
"$ 	c #3C9EBC",
"% 	c #ECF2F4",
"& 	c #ACDAF4",
"* 	c #6CB6D4",
"= 	c #3496B4",
"- 	c #CCE6F4",
"; 	c #A4D6F4",
"> 	c #2C96B4",
", 	c #54AAC4",
"' 	c #2C92B4",
") 	c #2492B4",
"! 	c #147A94",
"~ 	c #0C1E34",
"{ 	c #54626C",
"] 	c #04162C",
"^ 	c #5C5A5C",
"/ 	c #0C1224",
"( 	c #7C7A7C",
"_ 	c #54525C",
": 	c #A4A2A4",
"< 	c #FCFEFC",
"[ 	c #FCFAFC",
"} 	c #E4E6E4",
"| 	c #A4A6A4",
"1 	c #9C9A9C",
"2 	c #0C0A1C",
"3 	c #3C3644",
"4 	c #74767C",
"5 	c #9C9E9C",
"6 	c #ECEEF4",
"7 	c #DCDADC",
"8 	c #B4B6B4",
"9 	c #747674",
"0 	c #6C6E6C",
"a 	c #9C989A",
"b 	c #D79798",
"c 	c #CC5959",
"d 	c #C8B0B2",
"e 	c #7C7674",
"f 	c #271322",
"g 	c #CA5656",
"h 	c #C03D3D",
"i 	c #874B52",
"j 	c #DD8282",
"k 	c #CB5252",
"l 	c #B42F30",
"m 	c #261423",
"n 	c #281928",
"o 	c #C55C5D",
"p 	c #CC5050",
"q 	c #C02D2D",
"r 	c #BA2828",
"s 	c #CC5353",
"t 	c #C43C3C",
"u 	c #C43A3A",
"v 	c #BC2D2D",
"w 	c #CE6060",
"x 	c #CB4949",
"y 	c #C32D2D",
"z 	c #C53131",
"A 	c #BA2626",
"B 	c #BD3131",
"C 	c #C33737",
"D 	c #C43535",
"E 	c #BB2727",
"F 	c #CD5B5B",
"G 	c #CD4B4B",
"H 	c #C42C2C",
"I 	c #C62D2D",
"J 	c #BD2727",
"K 	c #B32B2C",
"L 	c #C33434",
"M 	c #C43232",
"N 	c #C53030",
"O 	c #CB4343",
"P 	c #C32323",
"Q 	c #C62525",
"R 	c #BF2626",
"S 	c #F1DADB",
"T 	c #BB2A2A",
"U 	c #C22828",
"V 	c #BF1515",
"W 	c #C00F0F",
"X 	c #C21212",
"Y 	c #B81617",
"Z 	c #544E54",
"` 	c #4C4E54",
" .	c #E5D4DA",
"..	c #C84D4D",
"+.	c #C32525",
"@.	c #BE0A0A",
"#.	c #C31111",
"$.	c #C71414",
"%.	c #BC191A",
"&.	c #D7C0C1",
"*.	c #C95656",
"=.	c #C32929",
"-.	c #BB0808",
";.	c #C31010",
">.	c #C71515",
",.	c #CD1A1A",
"'.	c #D21D1D",
").	c #C82020",
"!.	c #271828",
"~.	c #C04D4D",
"{.	c #BF2324",
"].	c #B90606",
"^.	c #C00D0D",
"/.	c #B81415",
"(.	c #BD191A",
"_.	c #D21E1F",
":.	c #D72324",
"<.	c #DF2929",
"[.	c #CF2727",
"}.	c #C44545",
"|.	c #B70404",
"1.	c #BC0B0B",
"2.	c #B91212",
"3.	c #C92121",
"4.	c #E02B2B",
"5.	c #E73232",
"6.	c #F03737",
"7.	c #CF2B2B",
"8.	c #B92323",
"9.	c #B30303",
"0.	c #B90707",
"a.	c #B71010",
"b.	c #D02828",
"c.	c #F23939",
"d.	c #EF3C3C",
"e.	c #D63131",
"f.	c #B20C0C",
"g.	c #B30F0F",
"h.	c #D12C2C",
"i.	c #D93232",
"                                                ",
"  . . . . . . .                                 ",
"  . + @ # $ $ .                                 ",
"  . @ % & * = .                                 ",
"  . @ - ; * > .                                 ",
"  . , ' ) ) ! .                                 ",
"  . ~ . { . ] ]                                 ",
"        ^                                       ",
"        ^                                       ",
"        ^             / / / / / / / / / /       ",
"        ^ ( ( ( ( ( ( _ : < [ } | 1 ( ( 2       ",
"        ^ 3 3 3 3 3 3 4 5 6 6 7 8 | 9 0 2       ",
"        ^             _ a b c d | 1 e 0 f g h   ",
"        ^             / i j k l m / / n o p q r ",
"        ^               c s t u v     w x y z A ",
"        ^                 B u C D E F G H I J   ",
"        ^             / / m K L M N O P Q R     ",
"        ^ ( ( ( ( ( ( _ : < S T U V W X Y       ",
"        3 Z ` Z Z ` Z 4 5 6  ...+.@.#.$.%.      ",
"                      _ 1 &.*.=.-.;.>.,.'.).    ",
"                      / !.~.{.].^./.(._.:.<.[.  ",
"                        }.R |.1.2.    3.4.5.6.7.",
"                        8.9.0.a.        b.c.d.e.",
"                          f.g.            h.i.  "};
