/* XPM */
static const char * mitkManualContouringTool_xpm[] = {
"24 24 46 1",
" 	c None",
".	c #B83052",
"+	c #BF264B",
"@	c #179EBF",
"#	c #1A9EBE",
"$	c #1C9CBB",
"%	c #2896B0",
"&	c #179FBF",
"*	c #01AAD2",
"=	c #14A0C1",
"-	c #11A2C4",
";	c #06A7CE",
">	c #00AAD3",
",	c #0AA5CB",
"'	c #2895B1",
")	c #229AB5",
"!	c #02A9D1",
"~	c #0DA3C8",
"{	c #1F99B7",
"]	c #2598B5",
"^	c #2795B1",
"/	c #0CA4C9",
"(	c #1C9BBA",
"_	c #2497B3",
":	c #1E9AB9",
"<	c #209AB9",
"[	c #13A0C3",
"}	c #03A9D1",
"|	c #189DBE",
"1	c #07A7CD",
"2	c #1A9CBC",
"3	c #1E9BBA",
"4	c #2699B4",
"5	c #2498B4",
"6	c #229AB6",
"7	c #189EBE",
"8	c #11A1C5",
"9	c #09A6CC",
"0	c #1E9BB8",
"a	c #259AB4",
"b	c #05A7CE",
"c	c #2E92A9",
"d	c #1B9CBC",
"e	c #1D9BB9",
"f	c #00A9D2",
"g	c #1D9BBA",
"                        ",
"                        ",
"                        ",
"                        ",
"                        ",
"           .+@#$%       ",
"         &*++=-;>,'     ",
"       )!~{     ].+     ",
"      .+^        ++/    ",
"     @++          (>    ",
"    _>:           <>    ",
"    [}            |1    ",
"    >2            *3    ",
"     456         .+     ",
"     >7.+       8++     ",
"      9++0    ab1c      ",
"       ;>d_e.+fg        ",
"        >>>>++          ",
"                        ",
"                        ",
"                        ",
"                        ",
"                        ",
"                        "};
