/* XPM */
static char * metadata24_xpm[] = {
"24 24 166 2",
"  	c None",
". 	c #FEFEFE",
"+ 	c #FFFFFF",
"@ 	c #D0D0D0",
"# 	c #FDFDFD",
"$ 	c #CECECE",
"% 	c #FCFCFC",
"& 	c #FBFBFB",
"* 	c #F3F3F3",
"= 	c #F0F0F0",
"- 	c #ECECEC",
"; 	c #E8E8E8",
"> 	c #E0E0E0",
", 	c #F7F7F7",
"' 	c #FAFAFA",
") 	c #F9F9F9",
"! 	c #EBEBEB",
"~ 	c #E9E9E9",
"{ 	c #EAEAEA",
"] 	c #E6E6E6",
"^ 	c #E0DFE0",
"/ 	c #D8D8D8",
"( 	c #C2C2C2",
"_ 	c #F4F4F4",
": 	c #CCCCCC",
"< 	c #ECEBEB",
"[ 	c #E7E7E7",
"} 	c #E3E3E3",
"| 	c #C7C7C6",
"1 	c #CBCBCB",
"2 	c #F5F5F5",
"3 	c #F6F6F6",
"4 	c #EDEDED",
"5 	c #F0F1F1",
"6 	c #DFDFDF",
"7 	c #ABABAB",
"8 	c #B2B2B2",
"9 	c #EEEEEE",
"0 	c #F2F2F2",
"a 	c #F1F1F1",
"b 	c #F8F8F8",
"c 	c #CACACA",
"d 	c #EFEFEF",
"e 	c #C8C8C8",
"f 	c #CDCDCD",
"g 	c #C7C7C7",
"h 	c #C5C5C5",
"i 	c #C3C3C3",
"j 	c #C1C1C1",
"k 	c #D7D7D7",
"l 	c #B4B4B4",
"m 	c #B8B8B8",
"n 	c #B6B6B6",
"o 	c #BFBFBF",
"p 	c #EAE9E8",
"q 	c #E8E6E5",
"r 	c #E8E7E5",
"s 	c #E9E8E7",
"t 	c #ECEBE9",
"u 	c #EBE9E9",
"v 	c #C0BFBE",
"w 	c #E0E4E8",
"x 	c #E1E4E9",
"y 	c #E5E9ED",
"z 	c #B8BABE",
"A 	c #0071C8",
"B 	c #0064C3",
"C 	c #006DC7",
"D 	c #0063C2",
"E 	c #006FC7",
"F 	c #0064C4",
"G 	c #0069C6",
"H 	c #0065C4",
"I 	c #006CC7",
"J 	c #0074CD",
"K 	c #005AA1",
"L 	c #127AC6",
"M 	c #006DC1",
"N 	c #E6EEF7",
"O 	c #3787CA",
"P 	c #F4F7FB",
"Q 	c #0071C1",
"R 	c #EEF2F9",
"S 	c #E3E9F0",
"T 	c #8DB5DB",
"U 	c #ECF2F8",
"V 	c #E3E9EE",
"W 	c #3F8DCD",
"X 	c #E1EBF5",
"Y 	c #006CC1",
"Z 	c #147DCA",
"` 	c #0E619F",
" .	c #1077C1",
"..	c #0068BC",
"+.	c #F0EEED",
"@.	c #9ABDDE",
"#.	c #FFFFF9",
"$.	c #1C7AC2",
"%.	c #FBFAF9",
"&.	c #0064B3",
"*.	c #0059B0",
"=.	c #EDF1F5",
"-.	c #0056A9",
";.	c #9DBFE1",
">.	c #EDEDEE",
",.	c #0272BF",
"'.	c #0D76C1",
").	c #0C5D9A",
"!.	c #1174BD",
"~.	c #1174BC",
"{.	c #0067B8",
"].	c #CED9E6",
"^.	c #F1F3F6",
"/.	c #D0DCE7",
"(.	c #3D86C4",
"_.	c #FFFFFD",
":.	c #ADBED0",
"<.	c #005CB4",
"[.	c #EDF1F6",
"}.	c #0062B3",
"|.	c #DCE7F3",
"1.	c #D2DFED",
"2.	c #689FCF",
"3.	c #006EBA",
"4.	c #1176C1",
"5.	c #0B5A95",
"6.	c #1171B8",
"7.	c #0E70B7",
"8.	c #1070B5",
"9.	c #D8E3EF",
"0.	c #F7F8F9",
"a.	c #A6C0D9",
"b.	c #5E95C7",
"c.	c #A9C8E6",
"d.	c #0062AF",
"e.	c #FAFAFC",
"f.	c #0062AE",
"g.	c #F8F7F7",
"h.	c #8AA9C6",
"i.	c #C7DAED",
"j.	c #0066B3",
"k.	c #1174BB",
"l.	c #0B5790",
"m.	c #0F71B7",
"n.	c #1171B6",
"o.	c #2A74B0",
"p.	c #2772AF",
"q.	c #1D70B2",
"r.	c #1B71B4",
"s.	c #3A79AF",
"t.	c #4A81B2",
"u.	c #006CB6",
"v.	c #3478B0",
"w.	c #2B74AF",
"x.	c #0068B3",
"y.	c #397AB2",
"z.	c #096FB7",
"A.	c #09578E",
"B.	c #0A5186",
"C.	c #085186",
"D.	c #034F86",
"E.	c #045086",
"F.	c #065086",
"G.	c #004E86",
"H.	c #095389",
"I.	c #053D68",
". . . . . . . . . . . . . . . . . . . . . . + @ ",
"# # # # # # # # # # . . + # # # # # # # # # + $ ",
"% & & & & & % * = = - ; > , # & & & & & & & + $ ",
"' ) ) ) ) ) & ! ~ { ] ^ / ( _ & ) ) ) ) ) ) . : ",
") , , , , , ) - < - - [ } | , * ) , , , , , % 1 ",
", 2 2 2 2 2 3 4 5 = = = - 6 7 8 _ , 2 2 2 2 ' 1 ",
"3 _ _ _ _ _ 2 9 0 a a a a 4 ! } 1 b _ _ _ _ ) c ",
"_ 0 0 0 0 0 * 9 3 2 2 2 _ 2 0 d : 3 0 0 0 0 , e ",
"0 a a a a a a 9 b 3 3 3 3 3 , b f _ a a a a 2 g ",
"a 9 d d d d d 4 & ) , 3 3 3 3 & $ 0 d d d d * h ",
"d 4 4 4 4 4 4 4 # % & ) ) b , % f = 4 4 4 4 a h ",
"4 ! - - - - ! - # & & % & ) ) % : 9 - - ! ! = i ",
"- ~ ~ ~ ~ ~ ~ 4 . # # # # # % + 1 4 ~ ~ { { 9 j ",
"! ; ; ; ; ; [ 9 + + + + + + + + c ! ; ; ; ; - j ",
"~ ] ] ] ] ] ; k l m m m m m m n e ~ ] ] ] ] { o ",
"p q r r r r r s t t t t t t t t u r r r r r t v ",
"w x x x x x x x x x x x x x x x x x x x x x y z ",
"A A A A A A B C D E D F G D H I B A A A A A J K ",
"L L L L L M N O P Q R S T U V W X Y L L L L Z ` ",
" . . . . ...+.@.#.$.%.&.*.=.-.;.>.,.'. . . .L ).",
"!.!.!.!.~.{.].^./.(._.:.<.[.}.|.1.2.3.!.!.!.4.5.",
"6.6.6.6.7.8.9.0.a.b.+ c.d.e.f.g.h.i.j.6.6.6.k.l.",
"m.m.m.m.m.n.o.p.q.r.s.t.u.v.n.w.x.y.z.m.m.m.k.A.",
"B.B.B.B.B.C.D.D.E.F.G.G.C.D.C.D.C.D.B.B.B.B.H.I."};
