/* XPM */
static char * DataNavigation_xpm[] = {
"24 24 406 2",
"  	c None",
". 	c #F40000",
"+ 	c #F90000",
"@ 	c #EDEDEE",
"# 	c #EF7677",
"$ 	c #EC0101",
"% 	c #EF0000",
"& 	c #F10000",
"* 	c #EE0000",
"= 	c #EC0000",
"- 	c #E90000",
"; 	c #EEEEEE",
"> 	c #EDECED",
", 	c #F0EEF3",
"' 	c #EDEEED",
") 	c #D39D7D",
"! 	c #E80101",
"~ 	c #F00101",
"{ 	c #F00000",
"] 	c #E60000",
"^ 	c #E70000",
"/ 	c #EFEDF1",
"( 	c #ECEDEA",
"_ 	c #D9E5CB",
": 	c #EDEDED",
"< 	c #E5EAE1",
"[ 	c #BAD69D",
"} 	c #A1CD6F",
"| 	c #96C457",
"1 	c #D52312",
"2 	c #E40000",
"3 	c #EB0100",
"4 	c #B60000",
"5 	c #430000",
"6 	c #440101",
"7 	c #B90101",
"8 	c #E10000",
"9 	c #DB1E1E",
"0 	c #F0ECF1",
"a 	c #E9DAC5",
"b 	c #A8D27E",
"c 	c #94C858",
"d 	c #C6DCAA",
"e 	c #EBEBEB",
"f 	c #EAEAEA",
"g 	c #ADCC90",
"h 	c #76B33A",
"i 	c #86BD4B",
"j 	c #90C555",
"k 	c #9EB555",
"l 	c #D21008",
"m 	c #E30100",
"n 	c #1E0100",
"o 	c #310100",
"p 	c #350100",
"q 	c #250100",
"r 	c #E50101",
"s 	c #E00101",
"t 	c #D0120C",
"u 	c #7DA638",
"v 	c #E3B372",
"w 	c #8BC652",
"x 	c #98C95F",
"y 	c #C5DCA9",
"z 	c #E9E9E9",
"A 	c #AECC92",
"B 	c #7AB540",
"C 	c #85BC49",
"D 	c #8FC453",
"E 	c #9DB253",
"F 	c #D00E07",
"G 	c #DF0000",
"H 	c #B00100",
"I 	c #250000",
"J 	c #370000",
"K 	c #3B0100",
"L 	c #330100",
"M 	c #BC0000",
"N 	c #D60100",
"O 	c #C60D04",
"P 	c #7DA238",
"Q 	c #E4B372",
"R 	c #89C551",
"S 	c #97C95E",
"T 	c #C3DBA8",
"U 	c #E7E7E7",
"V 	c #ACCB90",
"W 	c #78B43F",
"X 	c #83BB47",
"Y 	c #8EC351",
"Z 	c #94BD55",
"` 	c #C6180B",
" .	c #D50100",
"..	c #DB0100",
"+.	c #370100",
"@.	c #3F0100",
"#.	c #4F0100",
"$.	c #DD0100",
"%.	c #D30100",
"&.	c #BE1306",
"*.	c #78A939",
"=.	c #E3B270",
"-.	c #88C44F",
";.	c #95C85C",
">.	c #C2D9A6",
",.	c #E5E5E5",
"'.	c #AAC98E",
").	c #70B33B",
"!.	c #7FBA45",
"~.	c #A5BF5B",
"{.	c #CFC176",
"].	c #D24330",
"^.	c #CC0000",
"/.	c #D40101",
"(.	c #C70100",
"_.	c #8F0100",
":.	c #980100",
"<.	c #C80100",
"[.	c #CD0100",
"}.	c #C70000",
"|.	c #AA2F0E",
"1.	c #71B33B",
"2.	c #E2B16F",
"3.	c #86C34D",
"4.	c #94C75A",
"5.	c #C0D8A4",
"6.	c #E6E6E6",
"7.	c #E4E4E4",
"8.	c #BFC594",
"9.	c #CAAB54",
"0.	c #E2B06A",
"a.	c #9FB085",
"b.	c #E7BE7D",
"c.	c #93C057",
"d.	c #BF0000",
"e.	c #C60100",
"f.	c #C90000",
"g.	c #CF0000",
"h.	c #C60000",
"i.	c #BE0000",
"j.	c #75972E",
"k.	c #6FB239",
"l.	c #E1AF6C",
"m.	c #84C24B",
"n.	c #92C658",
"o.	c #BFD7A2",
"p.	c #E2E2E2",
"q.	c #AFBAA7",
"r.	c #3F9083",
"s.	c #1B939A",
"t.	c #229DA4",
"u.	c #EDBD79",
"v.	c #94CA5D",
"w.	c #A47D3E",
"x.	c #BE0100",
"y.	c #BB0100",
"z.	c #896B2A",
"A.	c #6AA931",
"B.	c #6DB136",
"C.	c #E1AE6A",
"D.	c #82C048",
"E.	c #91C555",
"F.	c #BDD6A0",
"G.	c #E0E0E0",
"H.	c #7FB1B1",
"I.	c #228A89",
"J.	c #289393",
"K.	c #259DA1",
"L.	c #EDBC77",
"M.	c #92CA5A",
"N.	c #96BE5D",
"O.	c #AE2110",
"P.	c #B50100",
"Q.	c #992109",
"R.	c #6EA23F",
"S.	c #68A92F",
"T.	c #6BAF34",
"U.	c #E0AC68",
"V.	c #81C046",
"W.	c #B9D49D",
"X.	c #DEDEDE",
"Y.	c #7DAFAF",
"Z.	c #1F8787",
"`.	c #269191",
" +	c #229B9F",
".+	c #ECBC75",
"++	c #90C958",
"@+	c #95C35E",
"#+	c #929547",
"$+	c #A70000",
"%+	c #A60100",
"&+	c #558024",
"*+	c #6BA03D",
"=+	c #66A42D",
"-+	c #68AE31",
";+	c #DFAB66",
">+	c #92BC4E",
",+	c #D3BE6C",
"'+	c #E7CFAF",
")+	c #DADADA",
"!+	c #7AADAD",
"~+	c #1E8686",
"{+	c #249090",
"]+	c #20999D",
"^+	c #EBB973",
"/+	c #8EC756",
"(+	c #92C15B",
"_+	c #8AB655",
":+	c #A73D21",
"<+	c #A90000",
"[+	c #AC0000",
"}+	c #7D481E",
"|+	c #538424",
"1+	c #5B9735",
"2+	c #639C2B",
"3+	c #9EA242",
"4+	c #E4AC5B",
"5+	c #B1AC77",
"6+	c #58A799",
"7+	c #85C1C3",
"8+	c #DCDCDC",
"9+	c #D6D6D6",
"0+	c #78AAAA",
"a+	c #1D8282",
"b+	c #238C8C",
"c+	c #1F969A",
"d+	c #EAB870",
"e+	c #8AC553",
"f+	c #89C155",
"g+	c #85B552",
"h+	c #A2924F",
"i+	c #AB0705",
"j+	c #9E0A0A",
"k+	c #5A664D",
"l+	c #99703B",
"m+	c #AD8845",
"n+	c #B78A4A",
"o+	c #6A8C6A",
"p+	c #218D8E",
"q+	c #20969B",
"r+	c #37A09F",
"s+	c #8ABFBF",
"t+	c #D7D7D7",
"u+	c #CECECE",
"v+	c #76A6A7",
"w+	c #1D8080",
"x+	c #1F8A8B",
"y+	c #0D919D",
"z+	c #E7B66C",
"A+	c #B4BF64",
"B+	c #D7B67A",
"C+	c #B3AD67",
"D+	c #A8A95C",
"E+	c #9E2820",
"F+	c #6A2A2A",
"G+	c #1A6363",
"H+	c #0A5C62",
"I+	c #347972",
"J+	c #0A767F",
"K+	c #1D8181",
"L+	c #238B8A",
"M+	c #19949B",
"N+	c #46A198",
"O+	c #B4C2B0",
"P+	c #CFCFCF",
"Q+	c #C3C3C3",
"R+	c #6EA3A6",
"S+	c #308277",
"T+	c #85976C",
"U+	c #D7AB67",
"V+	c #CFB469",
"W+	c #B2BD63",
"X+	c #90BB58",
"Y+	c #9BAF5A",
"Z+	c #BFA466",
"`+	c #A38253",
" @	c #4E6D5A",
".@	c #126D72",
"+@	c #106669",
"@@	c #2C7A79",
"#@	c #137679",
"$@	c #137D81",
"%@	c #629376",
"&@	c #C9AA6B",
"*@	c #DAB764",
"=@	c #C0C89A",
"-@	c #C4C4C4",
";@	c #BBBBBB",
">@	c #D2B08A",
",@	c #C29C43",
"'@	c #94A741",
")@	c #7AB43D",
"!@	c #78BB42",
"~@	c #89C04F",
"{@	c #89BA53",
"]@	c #81AF4D",
"^@	c #9BA654",
"/@	c #9D9E4E",
"(@	c #9C9544",
"_@	c #BA8746",
":@	c #6E744C",
"<@	c #427C6F",
"[@	c #8B8755",
"}@	c #D79A4A",
"|@	c #ABA648",
"1@	c #81B440",
"2@	c #79BC43",
"3@	c #ACC78F",
"4@	c #BCBCBC",
"5@	c #B6B6B6",
"6@	c #8FB377",
"7@	c #58A227",
"8@	c #6BA931",
"9@	c #76B23A",
"0@	c #7FB944",
"a@	c #86BE4D",
"b@	c #87B951",
"c@	c #7FAD4B",
"d@	c #9CA453",
"e@	c #959D4A",
"f@	c #61992F",
"g@	c #548F27",
"h@	c #6B802A",
"i@	c #AC9148",
"j@	c #78972F",
"k@	c #59A228",
"l@	c #69AA31",
"m@	c #77B43B",
"n@	c #7FB945",
"o@	c #A9C58C",
"p@	c #B7B7B7",
"q@	c #B3B3B3",
"r@	c #90B176",
"s@	c #5E9F29",
"t@	c #69A830",
"u@	c #74B239",
"v@	c #7CB742",
"w@	c #85BD4A",
"x@	c #81B647",
"y@	c #7BAB46",
"z@	c #9BA252",
"A@	c #939B48",
"B@	c #61962E",
"C@	c #578C27",
"D@	c #4C8120",
"E@	c #589924",
"F@	c #5FA029",
"G@	c #6AA930",
"H@	c #75B239",
"I@	c #7DB843",
"J@	c #A7C389",
"K@	c #B4B4B4",
"L@	c #B2B2B2",
"M@	c #8EAF75",
"N@	c #5C9E27",
"O@	c #65A62C",
"P@	c #6BAE2C",
"Q@	c #97C26C",
"R@	c #AEC696",
"S@	c #D2D2D3",
"T@	c #B5C3A4",
"U@	c #B1B178",
"V@	c #8E963E",
"W@	c #60952D",
"X@	c #558A26",
"Y@	c #4A7F1F",
"Z@	c #5E9435",
"`@	c #559823",
" #	c #5D9E28",
".#	c #67A72F",
"+#	c #6CAE2D",
"@#	c #98C26D",
"##	c #B9C6AC",
"$#	c #B5B5B5",
"%#	c #B1B1B1",
"&#	c #88AB6D",
"*#	c #84B15E",
"=#	c #A4BC8E",
"-#	c #D0CDD1",
";#	c #B5B3B7",
">#	c #828282",
",#	c #272727",
"'#	c #737373",
")#	c #B5B5B7",
"!#	c #CACDC8",
"~#	c #92AF76",
"{#	c #568B27",
"]#	c #467C1B",
"^#	c #5D9334",
"/#	c #51941E",
"(#	c #61A02D",
"_#	c #98B97A",
":#	c #CDCECB",
"<#	c #B6B4B7",
"[#	c #848484",
"}#	c #C8C6C9",
"|#	c #B5B3B6",
"1#	c #878787",
"2#	c #A1A0A1",
"3#	c #CBC8CE",
"4#	c #9FB08F",
"5#	c #8CAE72",
"6#	c #A8BB99",
"7#	c #CAC6CD",
"8#	c #9E9E9F",
"9#	c #B7B6B8",
"                    . + + .                     ",
"              @ # $ % & * = -             ;     ",
"        > , ' ) - ! ~ ~ { = ] ^       / ( _ :   ",
"    / < [ } | 1 2 3 4 5 6 7 ^ 8 9 0 a b c d e   ",
"  f g h i j k l m m n o p q r s t u v w x y f   ",
"  z A B C D E F G H I J K L M N O P Q R S T z   ",
"  U V W X Y Z `  ...K +.@.#.$.%.&.*.=.-.;.>.U   ",
"  ,.'.).!.~.{.].^./.(._.:.<.[.}.|.1.2.3.4.5.6.  ",
"  7.8.9.0.a.b.c.d.e.f.g.[.e.h.i.j.k.l.m.n.o.7.  ",
"  p.q.r.s.t.u.v.w.M i.d.x.y.M z.A.B.C.D.E.F.p.  ",
"  G.H.I.J.K.L.M.N.O.P.P.P.4 Q.R.S.T.U.V.R W.G.  ",
"  X.Y.Z.`. +.+++@+#+$+$+%+$+&+*+=+-+;+>+,+'+X.  ",
"  )+!+~+{+]+^+/+(+_+:+<+[+}+|+1+2+3+4+5+6+7+8+  ",
"  9+0+a+b+c+d+e+f+g+h+i+j+k+l+m+n+o+p+q+r+s+t+  ",
"  u+v+w+x+y+z+A+B+C+D+E+F+G+H+I+J+K+L+M+N+O+P+  ",
"  Q+R+S+T+U+V+W+X+Y+Z+`+ @.@+@@@#@$@%@&@*@=@-@  ",
"  ;@>@,@'@)@!@~@{@]@^@/@(@_@:@<@[@}@|@1@2@3@4@  ",
"  5@6@7@8@9@0@a@b@c@d@e@f@g@h@i@j@k@l@m@n@o@p@  ",
"  q@r@s@t@u@v@w@x@y@z@A@B@C@D@1+E@F@G@H@I@J@K@  ",
"  L@M@N@O@P@Q@R@S@T@U@V@W@X@Y@Z@`@ #.#+#@###$#  ",
"  %#&#*#=#-#;#>#,#'#)#!#~#{#]#^#/#(#_#:#<#[#    ",
"  K@}#|#1#              2#3#4#5#6#7#8#          ",
"                              9#                ",
"                                                "};
