/* XPM */
static char * adobe_pdf_icon_xpm[] = {
"48 48 530 2",
"  	c None",
". 	c #FFFFFF",
"+ 	c #FDFDFD",
"@ 	c #F5F5F5",
"# 	c #F3F3F3",
"$ 	c #F2F2F2",
"% 	c #F1F1F1",
"& 	c #F0F0F0",
"* 	c #EFEFEF",
"= 	c #EEEEEE",
"- 	c #EDECED",
"; 	c #ECECEC",
"> 	c #E8E8E8",
", 	c #DDE8E8",
"' 	c #EAF4F4",
") 	c #E9F3F4",
"! 	c #E9F3F3",
"~ 	c #E8F1F1",
"{ 	c #E7F1F1",
"] 	c #E4EFEF",
"^ 	c #E4EDED",
"/ 	c #DFE9E9",
"( 	c #DDE7E7",
"_ 	c #DCE6E7",
": 	c #DAE5E5",
"< 	c #D8E2E2",
"[ 	c #D6DFDF",
"} 	c #D2DBDB",
"| 	c #C6CFCF",
"1 	c #D8D9DA",
"2 	c #FC9E9B",
"3 	c #FEA8A6",
"4 	c #FEA9A7",
"5 	c #FFA9A7",
"6 	c #FFAAA8",
"7 	c #FEAAA8",
"8 	c #FCA7A5",
"9 	c #E28B89",
"0 	c #F09A98",
"a 	c #ED9896",
"b 	c #EB9794",
"c 	c #EA9693",
"d 	c #E89592",
"e 	c #E69492",
"f 	c #E49290",
"g 	c #E2918F",
"h 	c #DF8F8D",
"i 	c #DD8D8B",
"j 	c #D98987",
"k 	c #D68785",
"l 	c #D58684",
"m 	c #D18482",
"n 	c #CF8280",
"o 	c #CB7F7D",
"p 	c #C87B79",
"q 	c #C36E6B",
"r 	c #B7B2B2",
"s 	c #D2D4D4",
"t 	c #FBFBFB",
"u 	c #F6F4F4",
"v 	c #F93526",
"w 	c #FF544C",
"x 	c #FF564E",
"y 	c #FF5850",
"z 	c #FF534B",
"A 	c #FF5047",
"B 	c #FF473C",
"C 	c #FF4236",
"D 	c #FF3E31",
"E 	c #FC4135",
"F 	c #F93E32",
"G 	c #F53424",
"H 	c #F33121",
"I 	c #EF2F1F",
"J 	c #ED3325",
"K 	c #EB2F20",
"L 	c #E52A18",
"M 	c #E22917",
"N 	c #DF2817",
"O 	c #DD2817",
"P 	c #D92716",
"Q 	c #D42615",
"R 	c #CE2414",
"S 	c #CA2313",
"T 	c #C62213",
"U 	c #B31E10",
"V 	c #B8ADAD",
"W 	c #B7BABA",
"X 	c #DEDEDE",
"Y 	c #F8F8F8",
"Z 	c #F5F3F3",
"` 	c #F83A2D",
" .	c #FF655E",
"..	c #FF655F",
"+.	c #FF6761",
"@.	c #FF645E",
"#.	c #FF5B53",
"$.	c #FF9692",
"%.	c #FFBFBE",
"&.	c #FFBBB9",
"*.	c #FF615A",
"=.	c #FF5E57",
"-.	c #FFB4B2",
";.	c #FFB9B8",
">.	c #FF8F8C",
",.	c #F93221",
"'.	c #FA4B42",
").	c #FEA7A5",
"!.	c #FDA6A4",
"~.	c #FB9F9D",
"{.	c #EB2B19",
"].	c #EA2C1A",
"^.	c #E42A18",
"/.	c #DA2716",
"(.	c #D82716",
"_.	c #B11E0F",
":.	c #BEB4B4",
"<.	c #A9ADAD",
"[.	c #D7D7D7",
"}.	c #F7F7F7",
"|.	c #F4F3F3",
"1.	c #EC3122",
"2.	c #FF554D",
"3.	c #FF483D",
"4.	c #FFCDCC",
"5.	c #FFEAEA",
"6.	c #FFD1D0",
"7.	c #FF7873",
"8.	c #FFB2B1",
"9.	c #FEBDBC",
"0.	c #F84C44",
"a.	c #FCBAB8",
"b.	c #FBB6B4",
"c.	c #E92A18",
"d.	c #E82B1A",
"e.	c #E32A18",
"f.	c #DE2817",
"g.	c #AA1C0E",
"h.	c #C2BABA",
"i.	c #B1B4B4",
"j.	c #DBDBDB",
"k.	c #D1D1D1",
"l.	c #F6F6F6",
"m.	c #F4F4F4",
"n.	c #FF453B",
"o.	c #FD473D",
"p.	c #FE483E",
"q.	c #FE493F",
"r.	c #FE3A2C",
"s.	c #FFC7C6",
"t.	c #FFB8B7",
"u.	c #FE524A",
"v.	c #FE8480",
"w.	c #F63222",
"x.	c #FC7F7B",
"y.	c #F6554E",
"z.	c #EF3426",
"A.	c #EB3021",
"B.	c #E72A18",
"C.	c #DB2716",
"D.	c #D72616",
"E.	c #D62616",
"F.	c #A21A0D",
"G.	c #C5BEBE",
"H.	c #B7B9B9",
"I.	c #CFCFCF",
"J.	c #F7382A",
"K.	c #F4372A",
"L.	c #F5392C",
"M.	c #F6392C",
"N.	c #F42F1D",
"O.	c #FEBCBB",
"P.	c #FFFDFD",
"Q.	c #FFC6C5",
"R.	c #F65851",
"S.	c #F13325",
"T.	c #F45C55",
"U.	c #F15049",
"V.	c #FCD4D3",
"W.	c #DC2816",
"X.	c #D52615",
"Y.	c #D02515",
"Z.	c #98180C",
"`.	c #C8C2C2",
" +	c #BDC0C0",
".+	c #EDEDED",
"++	c #CECECE",
"@+	c #F9F9F9",
"#+	c #BC2011",
"$+	c #EC2C1A",
"%+	c #EB2D1C",
"&+	c #EB2D1D",
"*+	c #FBBDBC",
"=+	c #FCCCCB",
"-+	c #EC3325",
";+	c #E62A18",
">+	c #F2605A",
",+	c #F7A09E",
"'+	c #FFFAFA",
")+	c #E73B30",
"!+	c #D32515",
"~+	c #CF2514",
"{+	c #CB2414",
"]+	c #C72313",
"^+	c #C82313",
"/+	c #8E160A",
"(+	c #CBC5C5",
"_+	c #C9CBCB",
":+	c #C3C3C3",
"<+	c #D4D4D4",
"[+	c #D6D6D6",
"}+	c #D3D3D3",
"|+	c #FCFCFC",
"1+	c #AB1C0F",
"2+	c #F9C8C7",
"3+	c #FAC9C8",
"4+	c #E95F5A",
"5+	c #FDE6E5",
"6+	c #E56864",
"7+	c #DB392F",
"8+	c #CC2414",
"9+	c #C92313",
"0+	c #C32212",
"a+	c #BF2112",
"b+	c #BD2011",
"c+	c #801208",
"d+	c #CFC9C9",
"e+	c #BBBBBB",
"f+	c #9D9D9D",
"g+	c #8C8C8C",
"h+	c #858585",
"i+	c #888888",
"j+	c #B5B5B5",
"k+	c #CCCCCC",
"l+	c #9C190D",
"m+	c #D64039",
"n+	c #D7423A",
"o+	c #CF281A",
"p+	c #DB544F",
"q+	c #DA5651",
"r+	c #CD2618",
"s+	c #C22212",
"t+	c #C92516",
"u+	c #D85C57",
"v+	c #C12112",
"w+	c #C02112",
"x+	c #BE2011",
"y+	c #BB2011",
"z+	c #B81F10",
"A+	c #B51E10",
"B+	c #B21E10",
"C+	c #751007",
"D+	c #D3CDCD",
"E+	c #E2E3E3",
"F+	c #D5D5D5",
"G+	c #C9C9C9",
"H+	c #C0C0C0",
"I+	c #B1B1B1",
"J+	c #A7A7A7",
"K+	c #A5A5A5",
"L+	c #CBCBCB",
"M+	c #F2F1F1",
"N+	c #93170B",
"O+	c #92170B",
"P+	c #91160B",
"Q+	c #8F160A",
"R+	c #90160A",
"S+	c #8C150A",
"T+	c #891409",
"U+	c #881409",
"V+	c #851309",
"W+	c #831309",
"X+	c #7E1208",
"Y+	c #7F1208",
"Z+	c #7D1108",
"`+	c #7C1108",
" @	c #7B1107",
".@	c #7A1107",
"+@	c #640C05",
"@@	c #D5CECE",
"#@	c #EAEBEB",
"$@	c #E1E1E1",
"%@	c #D2D2D2",
"&@	c #C4C4C4",
"*@	c #B9B9B9",
"=@	c #D1BEBE",
"-@	c #D0C0BF",
";@	c #D0C1C0",
">@	c #CFC0C0",
",@	c #CBBBBB",
"'@	c #AE9E9D",
")@	c #C7B8B7",
"!@	c #C3B4B4",
"~@	c #C2B4B4",
"{@	c #C1BBBB",
"]@	c #CD7E7C",
"^@	c #D34A44",
"/@	c #D15B57",
"(@	c #C0BFBF",
"_@	c #C0B2B2",
":@	c #BFAEAE",
"<@	c #E4E4E4",
"[@	c #E6E6E6",
"}@	c #E4E3E3",
"|@	c #DFDFDF",
"1@	c #DADADA",
"2@	c #FEFEFE",
"3@	c #D6D9D9",
"4@	c #F9FCFC",
"5@	c #F5F8F8",
"6@	c #F4F7F7",
"7@	c #F5F7F7",
"8@	c #F2FFFF",
"9@	c #FF4031",
"0@	c #FFB2B0",
"a@	c #FCDBDA",
"b@	c #F4FBFB",
"c@	c #F3F5F5",
"d@	c #EDEEEE",
"e@	c #EAEAEA",
"f@	c #E5E5E5",
"g@	c #DDDDDD",
"h@	c #EEFFFF",
"i@	c #FF331E",
"j@	c #FDBCBA",
"k@	c #F0FAFA",
"l@	c #F8DBDA",
"m@	c #F2F5F5",
"n@	c #EBEBEB",
"o@	c #E9E9E9",
"p@	c #E7E7E7",
"q@	c #E3E3E3",
"r@	c #EFFFFF",
"s@	c #FF4133",
"t@	c #FFA3A1",
"u@	c #F1F8F8",
"v@	c #D0D0D0",
"w@	c #FAFAFA",
"x@	c #FF6963",
"y@	c #FF837F",
"z@	c #FEC9C8",
"A@	c #F3FBFB",
"B@	c #F3FFFF",
"C@	c #FFA19F",
"D@	c #FF9E9B",
"E@	c #F1FEFE",
"F@	c #F5F9F9",
"G@	c #F9E1E1",
"H@	c #FF331F",
"I@	c #FF6B65",
"J@	c #FF9996",
"K@	c #F4FFFF",
"L@	c #FF3E30",
"M@	c #FF4C41",
"N@	c #D8D8D8",
"O@	c #F5FCFC",
"P@	c #FCDEDD",
"Q@	c #FF341F",
"R@	c #FCE0E0",
"S@	c #F5FCFD",
"T@	c #F5FFFF",
"U@	c #FF483C",
"V@	c #FF7D78",
"W@	c #FF3928",
"X@	c #F6F8F8",
"Y@	c #F6FCFD",
"Z@	c #FBE3E3",
"`@	c #FF8D89",
" #	c #F6F7F7",
".#	c #DCDCDC",
"+#	c #F7FFFF",
"@#	c #FF9A97",
"##	c #F6FFFF",
"$#	c #F8F0F0",
"%#	c #FF9B98",
"&#	c #F5FAFA",
"*#	c #F6F9F9",
"=#	c #F8FFFF",
"-#	c #FFD9D8",
";#	c #F8FAFA",
">#	c #F8F7F7",
",#	c #FF5B52",
"'#	c #F7F5F5",
")#	c #F9EEEE",
"!#	c #FBE3E2",
"~#	c #FCE2E1",
"{#	c #F9F2F1",
"]#	c #F7F9F9",
"^#	c #FBFCFC",
"/#	c #FAFFFF",
"(#	c #FF3522",
"_#	c #FFB0AE",
":#	c #FCEBEB",
"<#	c #FFC0BE",
"[#	c #FF817D",
"}#	c #FF473B",
"|#	c #FF6A64",
"1#	c #FF6E68",
"2#	c #FF625B",
"3#	c #FF4B40",
"4#	c #FF5147",
"5#	c #FAFBFB",
"6#	c #FFBEBC",
"7#	c #FFC7C5",
"8#	c #FF7872",
"9#	c #FF6660",
"0#	c #FF9794",
"a#	c #FFCAC9",
"b#	c #F9F8F8",
"c#	c #FCE7E7",
"d#	c #FF6D67",
"e#	c #FFD3D3",
"f#	c #FAE9E9",
"g#	c #FFCAC8",
"h#	c #FF7974",
"i#	c #FF8E8A",
"j#	c #FFB5B3",
"k#	c #FEF1F1",
"l#	c #F9FFFF",
"m#	c #F9FDFD",
"n#	c #F8FEFE",
"o#	c #F8F9F9",
"p#	c #FF5046",
"q#	c #FF3827",
"r#	c #FF4032",
"s#	c #F5F8F9",
"t#	c #FBFFFF",
"u#	c #FCF9F9",
"v#	c #FF574E",
"w#	c #FAFEFE",
"x#	c #F8FCFC",
"y#	c #F6F8F9",
"z#	c #FB8088",
"A#	c #FDDEE0",
"B#	c #DCE0E0",
"C#	c #FEEDED",
"D#	c #FAC0C5",
"E#	c #FCFDFD",
"F#	c #DDDEDD",
"G#	c #FFC1BF",
"H#	c #FF4336",
"I#	c #FFB9B7",
"J#	c #E0E1E1",
"K#	c #EAEBEA",
"L#	c #C5C7C6",
"M#	c #C2C4C4",
"N#	c #E5E5E4",
"O#	c #F9FEFE",
"P#	c #FFC4C3",
"Q#	c #FF5D55",
"R#	c #49504D",
"S#	c #838685",
"T#	c #E1E2E1",
"U#	c #777B7A",
"V#	c #747976",
"W#	c #D2D3D2",
"X#	c #FF7F7A",
"Y#	c #FF3520",
"Z#	c #FCFEFE",
"`#	c #5B605E",
" $	c #5A5F5D",
".$	c #8C908E",
"+$	c #5A605D",
"@$	c #939796",
"#$	c #DCDDDC",
"$$	c #444B48",
"%$	c #D9DADA",
"&$	c #919492",
"*$	c #7A7F7D",
"=$	c #828685",
"-$	c #686E6B",
";$	c #FF756F",
">$	c #FF4A3E",
",$	c #FF5F58",
"'$	c #9C9E9C",
")$	c #686D6B",
"!$	c #E5E6E5",
"~$	c #595F5C",
"{$	c #CFD0D0",
"]$	c #909593",
"^$	c #4E5350",
"/$	c #4F5552",
"($	c #8C8F8D",
"_$	c #CED0CF",
":$	c #AFB1B0",
"<$	c #9FA3A1",
"[$	c #B6B8B7",
"}$	c #ADB0AE",
"|$	c #414846",
"1$	c #393E3B",
"2$	c #AFB2B0",
"3$	c #858887",
"4$	c #F1F1F0",
"5$	c #808483",
"6$	c #434A47",
"7$	c #8F9391",
"8$	c #7A7E7C",
"9$	c #626664",
"0$	c #878A89",
"a$	c #D8D9D8",
"b$	c #F4F4F5",
"c$	c #B2B3B2",
"d$	c #8B8E8C",
"e$	c #4C5451",
"f$	c #A1A3A2",
"g$	c #C2C3C2",
"h$	c #616764",
"i$	c #A2A5A4",
"j$	c #3F4541",
"k$	c #565B59",
"l$	c #EBECEC",
"m$	c #FAF9F9",
"n$	c #ACAFAE",
"o$	c #EEEFEE",
"p$	c #CFD1D0",
"q$	c #C0C2C1",
"r$	c #B0B3B1",
"s$	c #CDCECD",
"t$	c #898C8A",
"u$	c #CBCDCC",
"v$	c #ACAEAE",
"w$	c #C3C5C4",
"x$	c #C7C8C7",
"y$	c #8A8D8B",
"z$	c #F7F8F8",
"A$	c #F2F1F2",
"B$	c #F9F8F9",
"C$	c #E0E0E0",
"D$	c #9E9E9E",
"E$	c #A3A3A3",
". . . . . . . . . . . . . . . . . . . . . . . . . . . . . . . . . . . . . . . . . . . . . . . . ",
". . . . . . . . . . . . . . . . . . . . . . . . . . . . . . . . . . . . . . . . . . . . . . . . ",
". . . . . . . . . . . . . . . . . . . . . . . . . . . . . . . . . . . . . . . . . . . . . . . . ",
". . . . . . . . . . . . . . . . . . . . . . . . . . . . . . . . . . . . . . . . . . . . . . . . ",
". . . . . . . . . . . . + @ @ @ @ @ @ # # $ % & * * = - ; > * . . . . . . . . . . . . . . . . . ",
". . . . . . . . . . . . , ' ' ) ) ! ) ~ { ] ^ / ( _ : < [ } | 1 + . . . . . . . . . . . . . . . ",
". . . . 2 3 4 5 5 6 7 8 9 0 a b c d e f g h i j k l m n o p q r s t . . . . . . . . . . . . . . ",
". . . u v w x y x z A B C D E F G H I J K L M N O P Q R S T U V W X Y . . . . . . . . . . . . . ",
". . . Z `  ...+.+.@.#.$.%.&.*.=.-.;.>.,.'.).!.~.{.].^.N /.(._.:.<.> [.}.. . . . . . . . . . . . ",
". . . |.1.w 2.x x x 3.4.5.6.. 7.. 8.. 9.0.. a.b.c.d.e.f.P P g.h.i.j.$ k.l.. . . . . . . . . . . ",
". . . m.f.n.o.o.p.q.r.s.t.u.. v.. w.x.. y.. z.A.B.^.N C.D.E.F.G.H.k.. - I.Y . . . . . . . . . . ",
". . . |.R J.K.L.L.M.N.O.P.. Q.R.. S.T.. U.. . V.W.W.P X.Y.Y.Z.`. +I.. . .+++@+. . . . . . . . . ",
". . . |.#+$+].%+%+&+c.*+=+-+;+>+. M ,+'+)+. E.E.E.!+~+{+]+^+/+(+_+:+<+[+.+$ }+|+. . . . . . . . ",
". . . |.1+P P P /.C.(.2+3+D.P 4+. 5+. 6+7+. 8+8+9+T 0+a+b+b+c+d+1 e+f+g+h+i+j+k+. . . . . . . . ",
". . . |.l+^+]+^+S {+S m+n+{+{+o+p+q+r+s+t+u+v+w+x+y+z+A+B+U C+D+E+F+G+H+e+I+J+K+L+. . . . . . . ",
". . . M+c+N+N+O+O+P+P+Q+P+R+/+S+T+U+V+V+W+X+Y+Z+`+ @.@ @.@ @+@@@#@$@X j.[+%@k+&@*@j.. . . . . . ",
". . . . =@-@;@;@;@>@;@,@'@)@!@!@!@~@~@~@~@~@~@{@]@^@/@(@~@_@:@<@; > [@}@$@|@1@[.}+k+2@. . . . . ",
". . . . . . . . . . . . 3@4@5@5@6@5@6@7@5@7@7@8@9@0@8.a@b@6@c@d@; e@> > f@}@$@X g@k+|+. . . . . ",
". . . . . . . . . . . . }+}.$ # $ $ $ % $ $ $ h@i@j@k@l@m@$ $ & .+- n@o@> p@<@q@q@++t . . . . . ",
". . . . . . . . . . . . }+}.m.# $ # $ $ # # $ r@s@t@u@m@# # $ $ % * .+; n@o@> [@[@v@w@. . . . . ",
". . . . . . . . . . . . <+@+@ @ @ @ @ @ @ @ @ 8@x@y@z@A@@ @ @ @ m.# % & = - n@n@n@%@w@. . . . . ",
". . . . . . . . . . . . <+w@l.l.@ @ @ @ @ @ @ B@C@3.D@E@m.# @ l.l.l.@ # $ % = - .+F+w@. . . . . ",
". . . . . . . . . . . . <+t }.@ l.l.l.l.l.@ @ F@G@H@I@B@@ @ @ l.l.l.l.@ @ $ % * * F+w@. . . . . ",
". . . . . . . . . . . . <+t l.@ @ @ @ @ @ @ @ l.B@i@J@K@@ @ @ @ @ @ @ l.@ @ $ % $ [.@+. . . . . ",
". . . . . . . . . . . . F+|+Y }.l.l.l.l.l.l.l.l.K@L@M@K@l.l.l.l.l.l.l.l.l.l.l.@ @ N@@+. . . . . ",
". . . . . . . . . . . . F++ Y Y Y Y }.}.l.l.}.O@P@H@Q@R@S@}.}.}.}.}.}.}.}.}.}.}.Y 1@@+. . . . . ",
". . . . . . . . . . . . F++ @+@+@+@+Y Y Y }.l.T@U@8.V@W@K@X@}.}.}.}.}.}.}.}.}.}.@+j.@+. . . . . ",
". . . . . . . . . . . . F++ @+@+@+@+@+Y @+Y Y@Z@Q@K@T@H@`@T@ #}.}.}.}.}.}.}.}.}.@+.#@+. . . . . ",
". . . . . . . . . . . . F++ @+w@w@w@@+@+@+@++#U@@###Y@$#Q@%#T@&#X@*#&#&#&#*# #l.@+.#@+. . . . . ",
". . . . . . . . . . . . }+2@w@|+t t t t w@=#-#Q@+#;#@++#>#Q@,#'###)#!#~#~#{###]#w@.#@+. . . . . ",
". . . . . . . . . . . . }+2@w@|+|+|+|+|+^#/#(#_#=#=#+#:#<#[#Q@Q@Q@}#|#1#2#3#4###5#.#@+. . . . . ",
". . . . . . . . . . . . }+2@w@|+|+|+|+|+/#6#(#/#7#8#4#9#0#a#b#c#|#Q@d#e###T@f#g#/#g@@+. . . . . ",
". . . . . . . . . . . . }+. w@|+|+|+|+/#/#Q@h#i#j#k#/#l#=#=#m#n#+#o#6 p#q#r#x@s#t#g@@+. . . . . ",
". . . . . . . . . . . . }+. w@|+|+/#/#u#[#v#/#/#/#w#|+|+t w@w@@+@+x#+#+#+#Y@y#z#A#B#@+. . . . . ",
". . . . . . . . . . . . }+. w@|+/#C#7.-#Q@/#/#t t . 2@t |++ . w@w@@+. |+o#;#x#D#E#F#@+. . . . . ",
". . . . . . . . . . . . }+. t t#G#H#/#Q@I#t#|+|+. J#K#2@+ ; L#. |+. M#N#|+@+@+O#E#g@@+. . . . . ",
". . . . . . . . . . . . }+. /#P#Q@t#*.Q#t#+ + + . R#S#. . T#U#. . . V#W#. t . . 2@g@@+. . . . . ",
". . . . . . . . . . . . <+. t#Q@t#X#Y#t#Z#+ + + . `# $. .$+$@$#$$$%$&$ $*$. =$-$. X @+. . . . . ",
". . . . . . . . . . . . <+. t#;$>$,$t#t#+ + + . .#'$)$!$~${$]$^$l./$($_$ $:$($<$[$q@@+. . . . . ",
". . . . . . . . . . . . <+. E#t#t#t#E#|+|+|+|+. }$|$1$2$3$4$5$ $. 6$S#E+7$8$9$0$a$$@@+. . . . . ",
". . . . . . . . . . . . <+. |++ + + + + + + + . ~$b$c$d$e$f$0$+$g$h$0$i$j$<+k$l$m$X @+. . . . . ",
". . . . . . . . . . . . <+. . . . . . . . . . . n$. o$p$q$r$s$# t$ #u$v$w$. x$y$z$|@@+. . . . . ",
". . . . . . . . . . . . <+@ * & * * * * * * * * }.& A$@ }.>#@ # @+A$@ }.@ * @ B$$ 1@t . . . . . ",
". . . . . . . . . . . . C$J+f+D$D$D$D$D$D$D$D$D$D$D$D$D$D$D$D$D$D$D$D$D$D$D$D$f+E$}+. . . . . . ",
". . . . . . . . . . . . . . . . . . . . . . . . . . . . . . . . . . . . . . . . . . . . . . . . ",
". . . . . . . . . . . . . . . . . . . . . . . . . . . . . . . . . . . . . . . . . . . . . . . . ",
". . . . . . . . . . . . . . . . . . . . . . . . . . . . . . . . . . . . . . . . . . . . . . . . ",
". . . . . . . . . . . . . . . . . . . . . . . . . . . . . . . . . . . . . . . . . . . . . . . . "};
