/* XPM */
static char * Remove_icon16_xpm[] = {
"16 16 109 2",
"  	c None",
". 	c #878787",
"+ 	c #8F8F8F",
"@ 	c #BABABA",
"# 	c #DCDCDC",
"$ 	c #D8D8D8",
"% 	c #D5D5D5",
"& 	c #D2D2D2",
"* 	c #B1B1B1",
"= 	c #8D8D8D",
"- 	c #888888",
"; 	c #A5A5A5",
"> 	c #F5F5F5",
", 	c #F4ECEC",
"' 	c #E2B5B5",
") 	c #DA9C9C",
"! 	c #D79898",
"~ 	c #D8A8A8",
"{ 	c #DDD5D5",
"] 	c #D7D7D7",
"^ 	c #9E9E9E",
"/ 	c #8B8B8B",
"( 	c #FCFCFC",
"_ 	c #E5B8B8",
": 	c #CB5858",
"< 	c #C74949",
"[ 	c #C64646",
"} 	c #C54343",
"| 	c #C54040",
"1 	c #C64848",
"2 	c #CD9A9A",
"3 	c #D0D0D0",
"4 	c #9D9D9D",
"5 	c #8E8E8E",
"6 	c #C84E4E",
"7 	c #DF9999",
"8 	c #D06767",
"9 	c #C53F3F",
"0 	c #C43C3C",
"a 	c #CF5F5F",
"b 	c #DE9090",
"c 	c #C53838",
"d 	c #C69191",
"e 	c #C2C2C2",
"f 	c #939393",
"g 	c #BBBBBB",
"h 	c #FFFFFF",
"i 	c #FBF3F3",
"j 	c #CF5D5D",
"k 	c #DC8383",
"l 	c #C12D2D",
"m 	c #BAAFAF",
"n 	c #A4A4A4",
"o 	c #FBEFEF",
"p 	c #FBF0F0",
"q 	c #CC3C3C",
"r 	c #C00E0E",
"s 	c #BE7C7C",
"t 	c #B3B3B3",
"u 	c #959595",
"v 	c #C54242",
"w 	c #B91A1A",
"x 	c #C23333",
"y 	c #D14040",
"z 	c #C71515",
"A 	c #C86F6F",
"B 	c #BCBCBC",
"C 	c #979797",
"D 	c #D28686",
"E 	c #B30606",
"F 	c #B30303",
"G 	c #C33434",
"H 	c #FCF0F0",
"I 	c #D74545",
"J 	c #D01D1D",
"K 	c #D27979",
"L 	c #C5C5C5",
"M 	c #9A9A9A",
"N 	c #D18F8F",
"O 	c #B20202",
"P 	c #FAEFEF",
"Q 	c #FCF1F1",
"R 	c #E14F4F",
"S 	c #DB2727",
"T 	c #DE9A9A",
"U 	c #CECECE",
"V 	c #9C9C9C",
"W 	c #DCD1D1",
"X 	c #B50F0F",
"Y 	c #D57272",
"Z 	c #F38C8C",
"` 	c #E83D3D",
" .	c #EBE0E0",
"..	c #BFBFBF",
"+.	c #C78585",
"@.	c #B60505",
"#.	c #D87575",
"$.	c #F43D3D",
"%.	c #F5B1B1",
"&.	c #EFEFEF",
"*.	c #A7A7A7",
"=.	c #D1D1D1",
"-.	c #C17F7F",
";.	c #BA1414",
">.	c #BBB0B0",
",.	c #BE7B7B",
"'.	c #D27878",
").	c #EADFDF",
"!.	c #B2B2B2",
"            . . . .             ",
"      . + @ # $ % & * = -       ",
"    . ; > , ' ) ! ~ { ] ^ /     ",
"  . ; ( _ : < [ } | 1 2 3 4 5   ",
"  + > _ 6 7 8 9 0 a b c d e f   ",
"  g , : 7 h i a j i h k l m n   ",
". # ' < 8 i h o p h p q r s t u ",
". $ ) v w x o h h p y z z A B C ",
". % D E F G p h h H I J J K L M ",
". & N O x P h p H h Q R S T U V ",
"  * W X Y h p y I Q h Z `  ...  ",
"  = ] +.@.#.q z J R Z $.%.&.*.  ",
"  - ^ =.-.;.r z J S ` %.( g n   ",
"    / ^ e >.,.A '.T ).&.g *.    ",
"      5 f n !.B L U ..*.n       ",
"            u C M V             "};
