/* XPM */
static char * mitkLiveWireToolOn_xpm[] = {
"24 24 7 1",
" 	c None",
".	c #D20000",
"+	c #017995",
"@	c #0194B6",
"#	c #01AAD2",
"$	c #0194B7",
"%	c #017C98",
"........................",
".                      .",
".                      .",
".                      .",
".  ++++                .",
".  ++++@######         .",
".  ++++$######         .",
".  ++++     ##         .",
".           ####       .",
".           ####       .",
".             ##       .",
".             #######  .",
".             #######  .",
".                  ##  .",
".                  ##  .",
".                  ##  .",
".                  $$  .",
".                 +%%+ .",
".                 ++++ .",
".                 ++++ .",
".                 ++++ .",
".                      .",
".                      .",
"........................"};
