/* XPM */
static char * mitkUndo24x24_xpm[] = {
"24 24 155 2",
"  	c None",
". 	c #ECE9D8",
"+ 	c #DED7C9",
"@ 	c #D7C7BC",
"# 	c #D9CCC0",
"$ 	c #C49496",
"% 	c #C07F88",
"& 	c #BB6877",
"* 	c #B75A6C",
"= 	c #C3878E",
"- 	c #C9A6A4",
"; 	c #DCD3C6",
"> 	c #CCB2AC",
", 	c #B53252",
"' 	c #D1B6B0",
") 	c #CBACA8",
"! 	c #B54E64",
"~ 	c #B92B4D",
"{ 	c #BF264B",
"] 	c #B72C4D",
"^ 	c #BA6F7C",
"/ 	c #DCCFC3",
"( 	c #C6A0A0",
"_ 	c #B82C4E",
": 	c #C69C9D",
"< 	c #E7E2D2",
"[ 	c #BA7680",
"} 	c #BB2A4D",
"| 	c #BE264B",
"1 	c #B13654",
"2 	c #BC707D",
"3 	c #C79D9D",
"4 	c #C8A2A2",
"5 	c #C59597",
"6 	c #B75A6D",
"7 	c #B63151",
"8 	c #B6304F",
"9 	c #BF888E",
"0 	c #C49497",
"a 	c #BB294D",
"b 	c #B13F59",
"c 	c #C69A9B",
"d 	c #E9E6D6",
"e 	c #DED2C6",
"f 	c #BB717E",
"g 	c #BA2C4E",
"h 	c #BD274B",
"i 	c #B97781",
"j 	c #BE7782",
"k 	c #B13552",
"l 	c #D7C8BD",
"m 	c #CDB2AC",
"n 	c #B82E4F",
"o 	c #BC274B",
"p 	c #C49597",
"q 	c #B55267",
"r 	c #B45C6E",
"s 	c #E2DACC",
"t 	c #CAA5A3",
"u 	c #BA2B4E",
"v 	c #B73151",
"w 	c #DDD1C5",
"x 	c #B2405A",
"y 	c #B44961",
"z 	c #BD747F",
"A 	c #BD7782",
"B 	c #EBE8D7",
"C 	c #B03652",
"D 	c #B43B57",
"E 	c #D5C4BA",
"F 	c #D8C8BD",
"G 	c #B82B4D",
"H 	c #B23553",
"I 	c #E7E2D3",
"J 	c #DDD7C9",
"K 	c #B72B4D",
"L 	c #B33654",
"M 	c #BE8E91",
"N 	c #B96071",
"O 	c #CBADA9",
"P 	c #CCB5AF",
"Q 	c #B23E59",
"R 	c #C49798",
"S 	c #E5DFD0",
"T 	c #C59497",
"U 	c #C59396",
"V 	c #C9A3A1",
"W 	c #B34B62",
"X 	c #C8A1A1",
"Y 	c #BE7681",
"Z 	c #C59799",
"` 	c #B75E6F",
" .	c #CDB3AE",
"..	c #CDB4AF",
"+.	c #B85C6E",
"@.	c #B8858A",
"#.	c #BA707C",
"$.	c #D5C3BA",
"%.	c #CEBCB4",
"&.	c #B95D6F",
"*.	c #E8E5D4",
"=.	c #CBAFAB",
"-.	c #BF7A84",
";.	c #C79B9C",
">.	c #C49195",
",.	c #BA6775",
"'.	c #CBAFAA",
").	c #E1D8CB",
"!.	c #B43150",
"~.	c #B23452",
"{.	c #E5E1D1",
"].	c #BE7E86",
"^.	c #BC7781",
"/.	c #D8CEC2",
"(.	c #C49799",
"_.	c #E0D7C9",
":.	c #CDB1AC",
"<.	c #B82D4E",
"[.	c #B73150",
"}.	c #DACCC1",
"|.	c #B4465F",
"1.	c #DBCDC2",
"2.	c #CEAFAB",
"3.	c #B72E50",
"4.	c #BD264B",
"5.	c #C29094",
"6.	c #DFD3C7",
"7.	c #B54961",
"8.	c #B53A57",
"9.	c #C8A0A0",
"0.	c #E9E5D4",
"a.	c #DFD4C7",
"b.	c #BF7E86",
"c.	c #B8757F",
"d.	c #E0D6C9",
"e.	c #B65D6F",
"f.	c #B23A57",
"g.	c #C2868D",
"h.	c #C89C9D",
"i.	c #CBABA9",
"j.	c #C9A9A6",
"k.	c #C59899",
"l.	c #BC6F7C",
"m.	c #B63150",
"n.	c #BD838A",
"o.	c #C69E9E",
"p.	c #B6596C",
"q.	c #D2BBB4",
"r.	c #CCB2AD",
"s.	c #C38C91",
"t.	c #B95E70",
"u.	c #B44A62",
"v.	c #BB6A79",
"w.	c #C69799",
"x.	c #D7C9BE",
". + @ . . . . . . # $ % & * = - ; . . . . . . . ",
". > , ' . . . ) ! ~ { { { { { { ] ^ / . . . . . ",
". ( { _ : < [ } | 1 2 3 4 - 5 6 7 { 8 9 . . . . ",
". 0 { { a b { 7 c d . . . . . . e f g h i . . . ",
". j { { { { k l . . . . . . . . . . m n o p . . ",
". q { { { { { r s . . . . . . . . . . t u v w . ",
". x { { { { { { y / . . . . . . . . . . z { A . ",
"B C { { { { { { { D E . . . . . . . . . F G H I ",
"J K { { { { { { { L M . . . . . . . . . . N { O ",
"P | { { { { | Q R S . . . . . . . . . . . T { U ",
"V { { { o W - d . . . . . . . . . . . . . X { Y ",
"Z { ~ `  .. . . . . . . . . . . . . . . . ..| +.",
"@.#.$.. . . . . . . . . . . . . . . . . . %.| &.",
"*.. . . . . . . . . . . . . . . . . . . . =.{ -.",
". . . . . . . . . . . . . . . . . . . . . ;.{ >.",
". . . . . . . . . . . . . . . . . . . . . ,.| '.",
". . . . . . . . . . . . . . . . . . . . ).!.~.{.",
". . . . . . . . . . . . . . . . . . . . ].{ ^.. ",
". . . /.Z (._.. . . . . . . . . . . . :.<.[.}.. ",
". . . B r { |.1.. . . . . . . . . . 2.3.4.5.. . ",
". . . . 6.7.{ 8.9.0.. . . . . . a.b.n | c.. . . ",
". . . . . d.e.| { f.g.h.i.j.k.l.m.{ ~ n.B . . . ",
". . . . . . B o.x | { { { { { { ~ p.q.. . . . . ",
". . . . . . . . d r.s.t.u.! v.w.x.. . . . . . . "};
