/* XPM */
static char * mitkFillRegionToolOn_xpm[] = {
"24 24 114 2",
"  	c None",
". 	c #D20000",
"+ 	c #D2CDCD",
"@ 	c #969294",
"# 	c #976B76",
"$ 	c #A32343",
"% 	c #858485",
"& 	c #B3B3B3",
"* 	c #9B4C60",
"= 	c #BF264B",
"- 	c #BE264B",
"; 	c #94223E",
"> 	c #B2B2B2",
", 	c #A19497",
"' 	c #B32849",
") 	c #9B2341",
"! 	c #8C8A8B",
"~ 	c #95495D",
"{ 	c #9D9B9C",
"] 	c #956772",
"^ 	c #AE2446",
"/ 	c #71424F",
"( 	c #B7274B",
"_ 	c #87213B",
": 	c #A92445",
"< 	c #A72444",
"[ 	c #91213F",
"} 	c #8E223D",
"| 	c #8A213B",
"1 	c #982240",
"2 	c #91223E",
"3 	c #8A223B",
"4 	c #A74860",
"5 	c #B13956",
"6 	c #A05265",
"7 	c #A25063",
"8 	c #A25266",
"9 	c #B03B57",
"0 	c #975F6D",
"a 	c #814252",
"b 	c #808080",
"c 	c #837B7D",
"d 	c #A25265",
"e 	c #B23956",
"f 	c #A74960",
"g 	c #AA445D",
"h 	c #A8495F",
"i 	c #BD294D",
"j 	c #A6A4A5",
"k 	c #A08E93",
"l 	c #974055",
"m 	c #7E4957",
"n 	c #837A7C",
"o 	c #A8465E",
"p 	c #A05264",
"q 	c #A8485F",
"r 	c #9C5D6A",
"s 	c #9E5768",
"t 	c #9D606D",
"u 	c #A64F64",
"v 	c #A45065",
"w 	c #999797",
"x 	c #A0A0A0",
"y 	c #9A9A9A",
"z 	c #828282",
"A 	c #838383",
"B 	c #867C7F",
"C 	c #9A5968",
"D 	c #A8475F",
"E 	c #A64B62",
"F 	c #AA475E",
"G 	c #9C707A",
"H 	c #989898",
"I 	c #A5A5A5",
"J 	c #B1B1B1",
"K 	c #A4A4A4",
"L 	c #ABABAB",
"M 	c #A39A9C",
"N 	c #A7475F",
"O 	c #9C6F79",
"P 	c #999999",
"Q 	c #A6A6A6",
"R 	c #ACACAC",
"S 	c #A39B9D",
"T 	c #A54E63",
"U 	c #AC425C",
"V 	c #9E5668",
"W 	c #A05769",
"X 	c #AA5469",
"Y 	c #967C83",
"Z 	c #959595",
"` 	c #9B9B9B",
" .	c #A3A3A3",
"..	c #9C9C9C",
"+.	c #988F91",
"@.	c #9F5D6D",
"#.	c #A8566B",
"$.	c #9F9F9F",
"%.	c #969696",
"&.	c #939393",
"*.	c #A3838B",
"=.	c #A25064",
"-.	c #A9465D",
";.	c #9E5769",
">.	c #9D6975",
",.	c #949494",
"'.	c #9D9D9D",
").	c #A65A6C",
"!.	c #9D5E6D",
"~.	c #A9465E",
"{.	c #A8576B",
"].	c #979797",
"^.	c #A49C9D",
"/.	c #A8475E",
". . . . . . . . . . . . . . . . . . . . . . . . ",
". + + + + + + + + + + + + + + + @ # $ + + + + . ",
". + + + + + + + + + + + + + + % & * = - ; + + . ",
". + + + + + + + + + + + + + + > , ' = = = ) + . ",
". + + + + + + + + + + + + + ! > ~ = = = = = + . ",
". + + + + + + + + + + + + + { ] - = = = = ^ + . ",
". + + + + + + + + + + + + + / ( = = = = = _ + . ",
". + + + + + + + + + + + + + + + : = = = < + + . ",
". + + + + + + + + + + + + [ } + + | 1 2 + + + . ",
". + + + + + + + + + + + + + + + + + + + + + + . ",
". + + + + + + + + + + + + + + + + + + + + + + . ",
". + + + + + + + + + + + + + 3 + + + + + + + + . ",
". 4 5 6 5 5 7 5 5 8 5 9 { 0 = a b c 5 5 d e e . ",
". 5 = f = = g = = h = i j k l m b n = = o = = . ",
". p q r q q s q q t u v w x y z A B q q C D D . ",
". 9 i E i i F i i G H H I J K L J M i i N i i . ",
". 5 = f = = g = = O P H Q & I R & S = = o = = . ",
". T U V U U W X X Y Z Z `  .....x +.X X @.U U . ",
". 5 = f = = #.& & $.& J Q & I %.P &.& & *.= = . ",
". 5 = f = = #.& & $.& J Q & I %.P &.& & *.= = . ",
". =.-.;.-.-.>.x x &.,.&.y x y y '.+.).).!.~.~.. ",
". e = f = = {.& & ].P H I & I R & ^.= = /.= = . ",
". e = f = = {.& & ].P H I & I R & ^.= = /.= = . ",
". . . . . . . . . . . . . . . . . . . . . . . . "};
